linia 1-3 - req -> require
linia 7 - josn -> json
linia 9 - listn -> listen
linia 22 - VARCAR -> VARCHAR ; intre ora si nrBilete ; -> , 
linia 29 - require -> req
linia 40 - error ="" -> error = []
linia 42 - numeFilm -> !numeFilm
linia 53 - semnele de la length + nume -> prenume
linia 56 - prenume -> !prenume, mtch -> match
linia 67 - yahooo + || -> yahoo  + &&
linia 73 - console.logg - > console.log
linia 72-75 !== -> ==
linia 83 - errors -> error
linia 85 - Values - > Values (
linia 89 - snd -> send
linia 95 - req -> res


